smart_room.vcd
$date
	Sat Sep 27 02:56:29 2025
$end
$version
	Icarus Verilog
$end
$timescale
	1ps
$end
$scope module tb_smart_room $end
$var wire 7 ! seg_people [6:0] $end
$var wire 7 " seg_energy [6:0] $end
$var wire 1 # room_full $end
$var wire 4 $ red_leds [3:0] $end
$var wire 4 % green_leds [3:0] $end
$var reg 1 & clk $end
$var reg 1 ' reset $end
$var reg 1 ( switchA $end
$var reg 1 ) switchB $end
$scope module uut $end
$var wire 1 * _00_ $end
$var wire 1 + _01_ $end
$var wire 1 , _02_ $end
$var wire 1 & clk $end
$var wire 1 ' reset $end
$var wire 1 # room_full $end
$var wire 1 ( switchA $end
$var wire 1 ) switchB $end
$var wire 7 - seg_people [6:0] $end
$var wire 7 . seg_energy [6:0] $end
$var wire 4 / red_leds [3:0] $end
$var wire 5 0 people_next [4:0] $end
$var wire 4 1 green_leds [3:0] $end
$var wire 8 2 energy_next [7:0] $end
$var wire 6 3 clk_div_next [5:0] $end
$var reg 6 4 clk_div [5:0] $end
$var reg 8 5 energy_usage [7:0] $end
$var reg 5 6 people_count [4:0] $end
$scope module e_count $end
$var wire 6 7 old_clk [5:0] $end
$var wire 8 8 old_energy [7:0] $end
$var wire 5 9 people_count [4:0] $end
$var wire 8 : next_energy [7:0] $end
$var wire 6 ; next_clk [5:0] $end
$var wire 8 < new_energy [7:0] $end
$var wire 1 = is_energy_up $end
$scope module add_clk $end
$var wire 1 > _00_ $end
$var wire 1 ? _01_ $end
$var wire 1 @ _02_ $end
$var wire 1 A _03_ $end
$var wire 1 B _04_ $end
$var wire 1 C _05_ $end
$var wire 1 D _06_ $end
$var wire 1 E _07_ $end
$var wire 1 F _08_ $end
$var wire 1 G _09_ $end
$var wire 1 H _10_ $end
$var wire 1 I _11_ $end
$var wire 1 J _12_ $end
$var wire 1 K _13_ $end
$var wire 1 L _14_ $end
$var wire 1 M _15_ $end
$var wire 1 N _16_ $end
$var wire 1 O _17_ $end
$var wire 1 P _18_ $end
$var wire 1 Q _19_ $end
$var wire 6 R a [5:0] $end
$var wire 6 S b [5:0] $end
$var wire 1 T cin $end
$var wire 1 = cout $end
$var wire 32 U i [31:0] $end
$var wire 6 V s [5:0] $end
$var wire 6 W c [5:0] $end
$upscope $end
$scope module add_energy $end
$var wire 1 X _00_ $end
$var wire 1 Y _01_ $end
$var wire 1 Z _02_ $end
$var wire 1 [ _03_ $end
$var wire 1 \ _04_ $end
$var wire 1 ] _05_ $end
$var wire 1 ^ _06_ $end
$var wire 1 _ _07_ $end
$var wire 1 ` _08_ $end
$var wire 1 a _09_ $end
$var wire 1 b _10_ $end
$var wire 1 c _11_ $end
$var wire 1 d _12_ $end
$var wire 1 e _13_ $end
$var wire 1 f _14_ $end
$var wire 1 g _15_ $end
$var wire 1 h _16_ $end
$var wire 1 i _17_ $end
$var wire 1 j _18_ $end
$var wire 1 k _19_ $end
$var wire 1 l _20_ $end
$var wire 1 m _21_ $end
$var wire 1 n _22_ $end
$var wire 1 o _23_ $end
$var wire 1 p _24_ $end
$var wire 1 q _25_ $end
$var wire 1 r _26_ $end
$var wire 1 s _27_ $end
$var wire 8 t a [7:0] $end
$var wire 8 u b [7:0] $end
$var wire 1 v cin $end
$var wire 1 w cout $end
$var wire 32 x i [31:0] $end
$var wire 8 y s [7:0] $end
$var wire 8 z c [7:0] $end
$upscope $end
$scope module m1 $end
$var wire 8 { d0 [7:0] $end
$var wire 8 | d1 [7:0] $end
$var wire 1 = s $end
$var wire 8 } y [7:0] $end
$upscope $end
$upscope $end
$scope module energy $end
$var wire 1 ~ _00_ $end
$var wire 1 !" _01_ $end
$var wire 1 "" _03_ $end
$var wire 1 #" _04_ $end
$var wire 1 $" _06_ $end
$var wire 1 %" _07_ $end
$var wire 1 &" _08_ $end
$var wire 1 '" _10_ $end
$var wire 1 (" _11_ $end
$var wire 1 )" _13_ $end
$var wire 1 *" _14_ $end
$var wire 1 +" _15_ $end
$var wire 1 ," _16_ $end
$var wire 1 -" _17_ $end
$var wire 4 ." data [3:0] $end
$var wire 7 /" segments [6:0] $end
$var wire 1 0" _18_ $end
$var wire 1 1" _12_ $end
$var wire 1 2" _09_ $end
$var wire 1 3" _05_ $end
$var wire 1 4" _02_ $end
$upscope $end
$scope module p_count $end
$var wire 1 5" _00_ $end
$var wire 1 6" _01_ $end
$var wire 1 7" _02_ $end
$var wire 1 8" _03_ $end
$var wire 1 9" _04_ $end
$var wire 1 :" _05_ $end
$var wire 1 ;" _06_ $end
$var wire 1 <" _07_ $end
$var wire 1 =" _08_ $end
$var wire 5 >" current_count [4:0] $end
$var wire 1 ?" dec $end
$var wire 1 @" inc $end
$var wire 1 ( switch_A $end
$var wire 1 ) switch_B $end
$var wire 5 A" sub [4:0] $end
$var wire 5 B" next_count [4:0] $end
$var wire 5 C" mux_1 [4:0] $end
$var wire 5 D" mux_0 [4:0] $end
$var wire 5 E" add [4:0] $end
$scope module adding $end
$var wire 1 F" _00_ $end
$var wire 1 G" _01_ $end
$var wire 1 H" _02_ $end
$var wire 1 I" _03_ $end
$var wire 1 J" _04_ $end
$var wire 1 K" _05_ $end
$var wire 1 L" _06_ $end
$var wire 1 M" _07_ $end
$var wire 1 N" _08_ $end
$var wire 1 O" _09_ $end
$var wire 1 P" _10_ $end
$var wire 1 Q" _11_ $end
$var wire 1 R" _12_ $end
$var wire 1 S" _13_ $end
$var wire 1 T" _14_ $end
$var wire 1 U" _15_ $end
$var wire 5 V" a [4:0] $end
$var wire 5 W" b [4:0] $end
$var wire 1 X" cin $end
$var wire 1 Y" cout $end
$var wire 32 Z" i [31:0] $end
$var wire 5 [" s [4:0] $end
$var wire 5 \" c [4:0] $end
$upscope $end
$scope module m0 $end
$var wire 5 ]" d0 [4:0] $end
$var wire 5 ^" d1 [4:0] $end
$var wire 1 @" s $end
$var wire 5 _" y [4:0] $end
$upscope $end
$scope module m1 $end
$var wire 5 `" d0 [4:0] $end
$var wire 1 5" s $end
$var wire 5 a" y [4:0] $end
$var wire 5 b" d1 [4:0] $end
$upscope $end
$scope module m2 $end
$var wire 5 c" d0 [4:0] $end
$var wire 5 d" d1 [4:0] $end
$var wire 1 ?" s $end
$var wire 5 e" y [4:0] $end
$upscope $end
$scope module subtracting $end
$var wire 1 f" _00_ $end
$var wire 1 g" _01_ $end
$var wire 1 h" _02_ $end
$var wire 1 i" _03_ $end
$var wire 1 j" _04_ $end
$var wire 1 k" _05_ $end
$var wire 1 l" _06_ $end
$var wire 1 m" _07_ $end
$var wire 1 n" _08_ $end
$var wire 1 o" _09_ $end
$var wire 1 p" _10_ $end
$var wire 1 q" _11_ $end
$var wire 1 r" _12_ $end
$var wire 1 s" _13_ $end
$var wire 1 t" _14_ $end
$var wire 1 u" _15_ $end
$var wire 5 v" a [4:0] $end
$var wire 5 w" b [4:0] $end
$var wire 1 x" cin $end
$var wire 1 y" cout $end
$var wire 32 z" i [31:0] $end
$var wire 5 {" s [4:0] $end
$var wire 5 |" c [4:0] $end
$upscope $end
$upscope $end
$scope module people $end
$var wire 1 }" _00_ $end
$var wire 1 ~" _01_ $end
$var wire 1 !# _03_ $end
$var wire 1 "# _04_ $end
$var wire 1 ## _06_ $end
$var wire 1 $# _07_ $end
$var wire 1 %# _08_ $end
$var wire 1 &# _10_ $end
$var wire 1 '# _11_ $end
$var wire 1 (# _13_ $end
$var wire 1 )# _14_ $end
$var wire 1 *# _15_ $end
$var wire 1 +# _16_ $end
$var wire 1 ,# _17_ $end
$var wire 4 -# data [3:0] $end
$var wire 7 .# segments [6:0] $end
$var wire 1 /# _18_ $end
$var wire 1 0# _12_ $end
$var wire 1 1# _09_ $end
$var wire 1 2# _05_ $end
$var wire 1 3# _02_ $end
$upscope $end
$upscope $end
$scope task person_in $end
$upscope $end
$scope task person_out $end
$upscope $end
$upscope $end
$enddefinitions $end
$comment Show the parameter values. $end
$dumpall
$end
#0
$dumpvars
03#
12#
11#
10#
1/#
b1111110 .#
b0 -#
0,#
1+#
1*#
1)#
1(#
0'#
1&#
1%#
0$#
1##
1"#
1!#
1~"
1}"
b0zzz1 |"
b11111 {"
b101 z"
0y"
1x"
b11110 w"
b0 v"
1u"
0t"
1s"
0r"
1q"
0p"
0o"
1n"
0m"
1l"
1k"
1j"
0i"
1h"
1g"
1f"
b0 e"
b11111 d"
b0 c"
b11111 b"
b11111 a"
b0 `"
b0 _"
b1 ^"
b0 ]"
b0zzz0 \"
b1 ["
b101 Z"
0Y"
0X"
b1 W"
b0 V"
0U"
0T"
1S"
0R"
1Q"
1P"
0O"
1N"
0M"
1L"
0K"
1J"
0I"
1H"
0G"
0F"
b1 E"
b0 D"
b11111 C"
b0 B"
b11111 A"
0@"
0?"
b0 >"
1="
1<"
0;"
0:"
09"
18"
07"
06"
15"
04"
13"
12"
11"
10"
b1111110 /"
b0 ."
0-"
1,"
1+"
1*"
1)"
0("
1'"
1&"
0%"
1$"
1#"
1""
1!"
1~
b0 }
b1 |
b0 {
b0zzzzzz0 z
b1 y
b1000 x
0w
0v
b0 u
b1 t
0s
0r
1q
0p
1o
1n
0m
1l
0k
1j
1i
1h
0g
1f
1e
1d
0c
1b
1a
1`
0_
1^
0]
1\
0[
1Z
0Y
0X
b0zzzz0 W
b0 V
b110 U
0T
b0 S
b0 R
0Q
0P
1O
0N
1M
1L
0K
1J
0I
1H
1G
1F
0E
1D
0C
1B
0A
1@
0?
1>
0=
b1 <
b0 ;
b0 :
b0 9
b0 8
b0 7
b0 6
b0 5
b0 4
b0 3
b0 2
b0 1
b0 0
b0 /
b1111110 .
b1111110 -
0,
1+
0*
0)
0(
1'
0&
b0 %
b0 $
0#
b1111110 "
b1111110 !
$end
#5000
1&
#10000
0&
#15000
b1 0
b1 B"
b1 e"
b0 C"
b0 a"
b0 d"
b1 D"
b1 _"
b1 c"
05"
1@"
1(
0'
1&
#20000
0&
#25000
b1zzz1 |"
1y"
1t"
0s"
1r"
0n"
1m"
0j"
01#
b110000 !
b110000 -
b110000 .#
0##
0%#
02#
00#
0/#
b1 3
b1 ;
b1 V
b10 E"
b10 ["
b10 ^"
b0 A"
b0 b"
b0 {"
1i"
0"#
0&#
0*#
0J"
1'#
1,#
0>
0="
1F"
0H"
0f"
b1 -#
b1 S
b1 6
b1 9
b1 >"
b1 V"
b1 ]"
b1 `"
b1 v"
b1 0
b1 B"
b1 e"
b0 C"
b0 a"
b0 d"
b1 D"
b1 _"
b1 c"
15"
0@"
0(
1&
#30000
0&
#35000
b10 3
b10 ;
b10 V
0B
1>
0@
b1 4
b1 7
b1 R
b10 0
b10 B"
b10 e"
b1 C"
b1 a"
b1 d"
b10 D"
b10 _"
b10 c"
05"
1@"
1(
1&
#40000
0&
#45000
1j"
b100 3
b100 ;
b100 V
1N"
11#
0i"
0F
b11 E"
b11 ["
b11 ^"
b1 A"
b1 b"
b1 {"
b1101101 !
b1101101 -
b1101101 .#
0!#
1%#
10#
1/#
0)#
1B
1J"
0D
0<"
0M"
0m"
0l"
13#
1$#
1&#
0(#
1@
0="
0F"
1H"
1f"
1G"
0g"
b1 %
b1 1
b1 $
b1 /
b10 -#
b10 4
b10 7
b10 R
b10 S
b10 6
b10 9
b10 >"
b10 V"
b10 ]"
b10 `"
b10 v"
b10 0
b10 B"
b10 e"
b1 C"
b1 a"
b1 d"
b10 D"
b10 _"
b10 c"
15"
0@"
0(
1&
#50000
0&
#55000
1J
1F
b110 3
b110 ;
b110 V
1D
0I
1?
1C
b100 4
b100 7
b100 R
b11 0
b11 B"
b11 e"
b10 C"
b10 a"
b10 d"
b11 D"
b11 _"
b11 c"
05"
1@"
1(
1&
#60000
0&
#65000
0J
0N"
0j"
1I
01#
1M"
0%#
b1111001 !
b1111001 -
b1111001 .#
b100 E"
b100 ["
b100 ^"
b10 A"
b10 b"
b10 {"
1i"
b1001 3
b1001 ;
b1001 V
0F
0~"
0$#
1)#
1*#
0J"
0D
0'#
1(#
0>
1F"
0H"
0f"
0?
b11 -#
b110 4
b110 7
b110 R
b11 S
b11 6
b11 9
b11 >"
b11 V"
b11 ]"
b11 `"
b11 v"
b11 0
b11 B"
b11 e"
b10 C"
b10 a"
b10 d"
b11 D"
b11 _"
b11 c"
15"
0@"
0(
1&
#70000
0&
#75000
1O
1E
1J
0N
0B
0F
b1100 3
b1100 ;
b1100 V
1>
0@
1D
0I
0G
1?
0C
b1001 4
b1001 7
b1001 R
b100 0
b100 B"
b100 e"
b11 C"
b11 a"
b11 d"
b100 D"
b100 _"
b100 c"
05"
1@"
1(
1&
#80000
0&
#85000
0O
1j"
1N
1S"
1F
1N"
12#
1%#
0i"
0J
b10000 3
b10000 ;
b10000 V
0="
b101 E"
b101 ["
b101 ^"
b11 A"
b11 b"
b11 {"
1n"
1~"
1"#
b110011 !
b110011 -
b110011 .#
0/#
1B
1J"
0H
0R"
0r"
0q"
0E
0<"
0M"
0m"
1l"
0}"
13#
00#
0,#
1@
0F"
1H"
1f"
1;"
1K"
0k"
0?
0G"
1g"
b10 %
b10 1
b10 $
b10 /
b100 -#
b1100 4
b1100 7
b1100 R
b100 S
b100 6
b100 9
b100 >"
b100 V"
b100 ]"
b100 `"
b100 v"
b100 0
b100 B"
b100 e"
b11 C"
b11 a"
b11 d"
b100 D"
b100 _"
b100 c"
15"
0@"
0(
1&
#90000
0&
#95000
1O
b0zzzz0 W
b0 2
b0 :
b0 }
0=
0N
0P
1J
b10100 3
b10100 ;
b10100 V
1H
1G
0L
1C
b10000 4
b10000 7
b10000 R
b101 0
b101 B"
b101 e"
b100 C"
b100 a"
b100 d"
b101 D"
b101 _"
b101 c"
05"
1@"
1(
1&
#100000
0&
#105000
0n"
1m"
0j"
0%#
0+#
b1011011 !
b1011011 -
b1011011 .#
b110 E"
b110 ["
b110 ^"
b100 A"
b100 b"
b100 {"
1i"
b11001 3
b11001 ;
b11001 V
0J
0"#
0&#
10#
0*#
1/#
0J"
0H
1'#
1,#
0>
1F"
0H"
0f"
0C
b101 -#
b10100 4
b10100 7
b10100 R
b101 S
b101 6
b101 9
b101 >"
b101 V"
b101 ]"
b101 `"
b101 v"
b101 0
b101 B"
b101 e"
b100 C"
b100 a"
b100 d"
b101 D"
b101 _"
b101 c"
15"
0@"
0(
1&
#110000
0&
#115000
b0zzzz0 W
b0 2
b0 :
b0 }
0=
0P
1O
0N
0B
1J
b11110 3
b11110 ;
b11110 V
1>
0@
1H
0G
1C
b11001 4
b11001 7
b11001 R
b100 0
b100 B"
b100 e"
1?"
1)
1&
#120000
0&
#125000
b1zzzz0 W
b1 2
b1 :
b1 }
1=
1n"
1P
0m"
0O
b11 C"
b11 a"
b11 d"
1j"
1N
1F
1%#
1+#
b110011 !
b110011 -
b110011 .#
b101 E"
b101 ["
b101 ^"
b11 A"
b11 b"
b11 {"
0i"
0J
b100010 3
b100010 ;
b100010 V
1"#
1&#
00#
1*#
0/#
1B
1J"
0H
0E
0'#
0,#
1@
0F"
1H"
1f"
0C
1?
b100 D"
b100 _"
b100 c"
b100 -#
b11110 4
b11110 7
b11110 R
b100 S
b100 6
b100 9
b100 >"
b100 V"
b100 ]"
b100 `"
b100 v"
b100 0
b100 B"
b100 e"
0?"
0)
1&
#130000
0&
#135000
1O
b0zzzz0 W
0=
02"
b110000 "
b110000 .
b110000 /"
0N
0P
0$"
0&"
03"
01"
00"
b10 <
b10 y
b10 |
1J
0#"
0'"
0+"
0\
1H
1G
1L
b100110 3
b100110 ;
b100110 V
1("
1-"
1X
0Z
1C
1Q
b1 ."
b100010 4
b100010 7
b100010 R
b1 5
b1 8
b1 u
b1 {
b11 0
b11 B"
b11 e"
1?"
1)
1&
#140000
0&
#145000
b1zzz1 |"
0J
0N"
1y"
0j"
1t"
1I
b10 C"
b10 a"
b10 d"
1r"
1M"
0%#
02#
1i"
0s"
b101001 3
b101001 ;
b101001 V
0F
b100 E"
b100 ["
b100 ^"
b10 A"
b10 b"
b10 {"
0n"
0~"
0"#
0##
b1111001 !
b1111001 -
b1111001 .#
0J"
1q"
0D
0l"
1}"
01#
10#
1,#
1/#
0>
1F"
0H"
0f"
0;"
0K"
1k"
0?
1G"
0g"
b11 D"
b11 _"
b11 c"
b1 %
b1 1
b1 $
b1 /
b11 -#
b100110 4
b100110 7
b100110 R
b11 S
b11 6
b11 9
b11 >"
b11 V"
b11 ]"
b11 `"
b11 v"
b11 0
b11 B"
b11 e"
0?"
0)
1&
#150000
0&
#155000
1O
1E
1J
0N
0B
0F
b101100 3
b101100 ;
b101100 V
1>
0@
1D
0I
0G
1?
0C
b101001 4
b101001 7
b101001 R
b10 0
b10 B"
b10 e"
1?"
1)
1&
#160000
0&
#165000
1O
1F
1N"
0N
b1 C"
b1 a"
b1 d"
1j"
11#
0E
0M"
1J
1%#
b1101101 !
b1101101 -
b1101101 .#
b11 E"
b11 ["
b11 ^"
b1 A"
b1 b"
b1 {"
0i"
b101110 3
b101110 ;
b101110 V
1~"
1$#
0)#
0*#
1B
1J"
0I
1'#
0(#
1@
0F"
1H"
1f"
1C
b10 D"
b10 _"
b10 c"
b10 -#
b101100 4
b101100 7
b101100 R
b10 S
b10 6
b10 9
b10 >"
b10 V"
b10 ]"
b10 `"
b10 v"
b10 0
b10 B"
b10 e"
0?"
0)
1&
#170000
0&
#175000
0O
1N
0J
1I
b110000 3
b110000 ;
b110000 V
0F
0D
0?
b101110 4
b101110 7
b101110 R
b1 0
b1 B"
b1 e"
1?"
1)
1&
#180000
0&
#185000
b1zzz1 |"
1y"
1t"
1m"
0s"
b0zzzz0 W
b1 2
b1 :
b1 }
1O
0j"
0=
b0 C"
b0 a"
b0 d"
1r"
0P
0N
1J
01#
1i"
b110001 3
b110001 ;
b110001 V
1F
b10 E"
b10 ["
b10 ^"
b0 A"
b0 b"
b0 {"
0n"
b110000 !
b110000 -
b110000 .#
1!#
0%#
00#
0/#
1)#
0J"
0L
1G
0I
1D
1<"
1l"
03#
0$#
0&#
1(#
0>
1F"
0H"
0f"
0C
0G"
1g"
b1 D"
b1 _"
b1 c"
b0 %
b0 1
b0 $
b0 /
b1 -#
b110000 4
b110000 7
b110000 R
b1 S
b1 6
b1 9
b1 >"
b1 V"
b1 ]"
b1 `"
b1 v"
b1 0
b1 B"
b1 e"
0?"
0)
1&
#190000
0&
#195000
b110010 3
b110010 ;
b110010 V
0B
1>
0@
b110001 4
b110001 7
b110001 R
b0 0
b0 B"
b0 e"
1?"
1)
1&
#200000
0&
#205000
b0zzz1 |"
0y"
0t"
1s"
0r"
1n"
0m"
b11111 C"
b11111 a"
b11111 d"
1j"
11#
b1111110 !
b1111110 -
b1111110 .#
1F
1##
1%#
12#
10#
1/#
b1 E"
b1 ["
b1 ^"
b11111 A"
b11111 b"
b11111 {"
0i"
b110010 3
b110010 ;
b110010 V
1"#
1&#
1*#
1B
1J"
0E
0'#
0,#
1@
1="
0F"
1H"
1f"
1?
b0 D"
b0 _"
b0 c"
b0 -#
b110010 4
b110010 7
b110010 R
b0 S
b0 6
b0 9
b0 >"
b0 V"
b0 ]"
b0 `"
b0 v"
b0 0
b0 B"
b0 e"
0?"
0)
1&
#210000
0&
#215000
1)
1&
#220000
0&
#225000
0)
1&
#230000
0&
#235000
1)
1&
#240000
0&
#245000
0)
1&
#250000
0&
#255000
1)
1&
#260000
0&
#265000
0)
1&
#270000
0&
#275000
b1 0
b1 B"
b1 e"
b0 C"
b0 a"
b0 d"
b1 D"
b1 _"
b1 c"
05"
1@"
1(
1&
#280000
0&
#285000
b1zzz1 |"
1y"
1t"
0s"
1r"
0n"
1m"
0j"
01#
b110000 !
b110000 -
b110000 .#
0##
0%#
02#
00#
0/#
b110011 3
b110011 ;
b110011 V
b10 E"
b10 ["
b10 ^"
b0 A"
b0 b"
b0 {"
1i"
0"#
0&#
0*#
0J"
1'#
1,#
0>
0="
1F"
0H"
0f"
b1 -#
b1 S
b1 6
b1 9
b1 >"
b1 V"
b1 ]"
b1 `"
b1 v"
b1 0
b1 B"
b1 e"
b0 C"
b0 a"
b0 d"
b1 D"
b1 _"
b1 c"
15"
0@"
0(
1&
#290000
0&
#295000
0F
1E
b110100 3
b110100 ;
b110100 V
0B
1>
0@
b110011 4
b110011 7
b110011 R
b10 0
b10 B"
b10 e"
b1 C"
b1 a"
b1 d"
b10 D"
b10 _"
b10 c"
05"
1@"
1(
1&
#300000
0&
#305000
1F
1j"
0E
1J
1N"
11#
0i"
b110110 3
b110110 ;
b110110 V
b11 E"
b11 ["
b11 ^"
b1 A"
b1 b"
b1 {"
b1101101 !
b1101101 -
b1101101 .#
0!#
1%#
10#
1/#
0)#
1B
1J"
0I
0<"
0M"
0m"
0l"
13#
1$#
1&#
0(#
1@
0="
0F"
1H"
1f"
1C
1G"
0g"
b1 %
b1 1
b1 $
b1 /
b10 -#
b110100 4
b110100 7
b110100 R
b10 S
b10 6
b10 9
b10 >"
b10 V"
b10 ]"
b10 `"
b10 v"
b10 0
b10 B"
b10 e"
b1 C"
b1 a"
b1 d"
b10 D"
b10 _"
b10 c"
15"
0@"
0(
1&
#310000
0&
#315000
0J
1I
b111000 3
b111000 ;
b111000 V
0F
0D
0?
b110110 4
b110110 7
b110110 R
b11 0
b11 B"
b11 e"
b10 C"
b10 a"
b10 d"
b11 D"
b11 _"
b11 c"
05"
1@"
1(
1&
#320000
0&
#325000
b0zzzz0 W
b1 2
b1 :
b1 }
0=
0P
0N"
1O
0j"
01#
1M"
0N
1J
0%#
b1111001 !
b1111001 -
b1111001 .#
b100 E"
b100 ["
b100 ^"
b10 A"
b10 b"
b10 {"
1i"
b111011 3
b111011 ;
b111011 V
1F
0~"
0$#
1)#
1*#
0J"
0G
0I
1D
0'#
1(#
0>
1F"
0H"
0f"
0C
1?
b11 -#
b111000 4
b111000 7
b111000 R
b11 S
b11 6
b11 9
b11 >"
b11 V"
b11 ]"
b11 `"
b11 v"
b11 0
b11 B"
b11 e"
b10 C"
b10 a"
b10 d"
b11 D"
b11 _"
b11 c"
15"
0@"
0(
1&
#330000
0&
#335000
0B
b111110 3
b111110 ;
b111110 V
0F
1>
0@
0D
0?
b111011 4
b111011 7
b111011 R
b100 0
b100 B"
b100 e"
b11 C"
b11 a"
b11 d"
b100 D"
b100 _"
b100 c"
05"
1@"
1(
1&
#340000
0&
#345000
b1zzzz0 W
b10 2
b10 :
b10 }
1=
1P
0O
1j"
1N
1S"
1N"
12#
1%#
0i"
0J
b10 3
b10 ;
b10 V
1F
0="
b101 E"
b101 ["
b101 ^"
b11 A"
b11 b"
b11 {"
1n"
1~"
1"#
b110011 !
b110011 -
b110011 .#
0/#
1B
1J"
0H
0R"
0r"
0q"
0E
1D
0<"
0M"
0m"
1l"
0}"
13#
00#
0,#
1@
0F"
1H"
1f"
1;"
1K"
0k"
1?
0G"
1g"
b10 %
b10 1
b10 $
b10 /
b100 -#
b111110 4
b111110 7
b111110 R
b100 S
b100 6
b100 9
b100 >"
b100 V"
b100 ]"
b100 `"
b100 v"
b100 0
b100 B"
b100 e"
b11 C"
b11 a"
b11 d"
b100 D"
b100 _"
b100 c"
15"
0@"
0(
1&
#350000
0&
#355000
1O
b0zzzz0 W
0=
b10 2
b10 :
b10 }
0N
0P
12"
1`
1J
1\
b1101101 "
b1101101 .
b1101101 /"
0""
1&"
11"
10"
0*"
b11 <
b11 y
b11 |
1H
1G
1L
b110 3
b110 ;
b110 V
0X
1Z
14"
1%"
1'"
0)"
0_
1C
0Q
1Y
b10 ."
b10 4
b10 7
b10 R
b10 5
b10 8
b10 u
b10 {
b101 0
b101 B"
b101 e"
b100 C"
b100 a"
b100 d"
b101 D"
b101 _"
b101 c"
05"
1@"
1(
1&
#360000
0&
#365000
0n"
1m"
0j"
0%#
0+#
b1011011 !
b1011011 -
b1011011 .#
b110 E"
b110 ["
b110 ^"
b100 A"
b100 b"
b100 {"
1i"
b1011 3
b1011 ;
b1011 V
0J
0"#
0&#
10#
0*#
1/#
0J"
0H
1'#
1,#
0>
1F"
0H"
0f"
0C
b101 -#
b110 4
b110 7
b110 R
b101 S
b101 6
b101 9
b101 >"
b101 V"
b101 ]"
b101 `"
b101 v"
b101 0
b101 B"
b101 e"
b100 C"
b100 a"
b100 d"
b101 D"
b101 _"
b101 c"
15"
0@"
0(
1&
#370000
0&
#375000
1I
0F
0O
1E
1N
0B
0J
b10000 3
b10000 ;
b10000 V
1>
0@
1H
0G
1C
b1011 4
b1011 7
b1011 R
b110 0
b110 B"
b110 e"
b101 C"
b101 a"
b101 d"
b110 D"
b110 _"
b110 c"
05"
1@"
1(
1&
#380000
0&
#385000
1J
0I
1S"
1F
b0zzzz0 W
b10 2
b10 :
b10 }
1O
0R"
1j"
0=
0E
0P
0N
1N"
b1011111 !
b1011111 -
b1011111 .#
0i"
b10110 3
b10110 ;
b10110 V
b111 E"
b111 ["
b111 ^"
b101 A"
b101 b"
b101 {"
1%#
11#
1B
1J"
0L
1G
0M"
0m"
0l"
1$#
1&#
0(#
1@
0F"
1H"
1f"
1G"
0g"
b11 %
b11 1
b11 $
b11 /
b110 -#
b10000 4
b10000 7
b10000 R
b110 S
b110 6
b110 9
b110 >"
b110 V"
b110 ]"
b110 `"
b110 v"
b110 0
b110 B"
b110 e"
b101 C"
b101 a"
b101 d"
b110 D"
b110 _"
b110 c"
15"
0@"
0(
1&
#390000
0&
#395000
0F
b11100 3
b11100 ;
b11100 V
0J
0D
0H
0?
0C
b10110 4
b10110 7
b10110 R
b111 0
b111 B"
b111 e"
b110 C"
b110 a"
b110 d"
b111 D"
b111 _"
b111 c"
05"
1@"
1(
1&
#400000
0&
#405000
0S"
b1zzzz0 W
b11 2
b11 :
b11 }
1=
1R"
1P
0N"
0O
0j"
1M"
1N
03#
02#
0%#
01#
b1110000 !
b1110000 -
b1110000 .#
1+#
b1000 E"
b1000 ["
b1000 ^"
b110 A"
b110 b"
b110 {"
1i"
b100011 3
b100011 ;
b100011 V
1F
0~"
0$#
00#
1*#
0J"
0G
1D
0'#
1(#
0>
1F"
0H"
0f"
1?
b111 -#
b11100 4
b11100 7
b11100 R
b111 S
b111 6
b111 9
b111 >"
b111 V"
b111 ]"
b111 `"
b111 v"
b111 0
b111 B"
b111 e"
b110 C"
b110 a"
b110 d"
b111 D"
b111 _"
b111 c"
15"
0@"
0(
1&
#410000
0&
#415000
0`
1O
b0zzzz0 W
1I
0=
02"
1_
0N
0P
0&"
b1111001 "
b1111001 .
b1111001 /"
b100 <
b100 y
b100 |
0B
0F
0J
0!"
0%"
1*"
1+"
0\
1>
0@
0D
1H
1G
1L
b101010 3
b101010 ;
b101010 V
0("
1)"
1X
0Z
0?
1C
1Q
b11 ."
b100011 4
b100011 7
b100011 R
b11 5
b11 8
b11 u
b11 {
b1000 0
b1000 B"
b1000 e"
b111 C"
b111 a"
b111 d"
b1000 D"
b1000 _"
b1000 c"
05"
1@"
1(
1&
#420000
0&
#425000
b0zzz0 \"
1j"
0Y"
11#
0T"
0t"
1J
0="
1S"
1N"
1##
1%#
12#
0i"
0O
0<"
1s"
b110010 3
b110010 ;
b110010 V
1F
b1001 E"
b1001 ["
b1001 ^"
b111 A"
b111 b"
b111 {"
1n"
1~"
1!#
1"#
1B
1J"
0M
0P"
1p"
0I
0R"
0r"
1q"
0E
1D
0M"
0m"
1l"
1}"
10#
0,#
b1111111 !
b1111111 -
b1111111 .#
1@
0F"
1H"
1f"
1:"
1o"
0C
1;"
0K"
1k"
1?
0G"
1g"
b100 %
b100 1
b100 $
b100 /
b1000 -#
b101010 4
b101010 7
b101010 R
b1000 S
b1000 6
b1000 9
b1000 >"
b1000 V"
b1000 ]"
b1000 `"
b1000 v"
b1000 0
b1000 B"
b1000 e"
b111 C"
b111 a"
b111 d"
b1000 D"
b1000 _"
b1000 c"
15"
0@"
0(
1&
#430000
0&
#435000
b0zzzz0 W
b11 2
b11 :
b11 }
0=
0P
1O
b111010 3
b111010 ;
b111010 V
0G
1M
0L
b110010 4
b110010 7
b110010 R
b1001 0
b1001 B"
b1001 e"
b1000 C"
b1000 a"
b1000 d"
b1001 D"
b1001 _"
b1001 c"
05"
1@"
1(
1&
#440000
0&
#445000
0s"
1r"
0n"
1m"
b1zzzz0 W
b100 2
b100 :
b100 }
1=
0j"
1P
b1110011 !
b1110011 -
b1110011 .#
01#
0##
0%#
02#
00#
0/#
b1010 E"
b1010 ["
b1010 ^"
b1000 A"
b1000 b"
b1000 {"
1i"
b11 3
b11 ;
b11 V
0O
0"#
0&#
0*#
0J"
1G
0M
1'#
1,#
0>
1F"
0H"
0f"
b1001 -#
b111010 4
b111010 7
b111010 R
b1001 S
b1001 6
b1001 9
b1001 >"
b1001 V"
b1001 ]"
b1001 `"
b1001 v"
b1001 0
b1001 B"
b1001 e"
b1000 C"
b1000 a"
b1000 d"
b1001 D"
b1001 _"
b1001 c"
15"
0@"
0(
1&
#450000
0&
#455000
0F
b0zzzz0 W
1E
0=
b100 2
b100 :
b100 }
0P
1`
13"
1&"
1d
0B
1O
1\
1!"
1#"
b110011 "
b110011 .
b110011 /"
00"
b101 <
b101 y
b101 |
1>
0@
0G
1M
1L
b1100 3
b1100 ;
b1100 V
0X
1Z
0_
0~
14"
01"
0-"
0c
0Q
0Y
1]
b100 ."
b11 4
b11 7
b11 R
b100 5
b100 8
b100 u
b100 {
b1010 0
b1010 B"
b1010 e"
b1001 C"
b1001 a"
b1001 d"
b1010 D"
b1010 _"
b1010 c"
05"
1@"
1(
1&
#460000
0&
