smart_room.vcd
$date
	Sun Sep 28 20:15:37 2025
$end
$version
	Icarus Verilog
$end
$timescale
	1ps
$end
$scope module tb_smart_room $end
$var wire 7 ! seg_people [6:0] $end
$var wire 7 " seg_energy [6:0] $end
$var wire 1 # room_full $end
$var wire 4 $ red_leds [3:0] $end
$var wire 4 % green_leds [3:0] $end
$var reg 1 & clk $end
$var reg 1 ' reset $end
$var reg 1 ( switchA $end
$var reg 1 ) switchB $end
$scope module uut $end
$var wire 1 * _00_ $end
$var wire 1 + _01_ $end
$var wire 1 , _02_ $end
$var wire 1 - _03_ $end
$var wire 1 & clk $end
$var wire 1 ' reset $end
$var wire 1 # room_full $end
$var wire 1 ( switchA $end
$var wire 1 ) switchB $end
$var wire 7 . seg_people [6:0] $end
$var wire 7 / seg_energy [6:0] $end
$var wire 4 0 red_leds [3:0] $end
$var wire 5 1 people_next [4:0] $end
$var wire 4 2 green_leds [3:0] $end
$var wire 8 3 energy_next [7:0] $end
$var wire 6 4 clk_div_next [5:0] $end
$var reg 6 5 clk_div [5:0] $end
$var reg 8 6 energy_usage [7:0] $end
$var reg 5 7 people_count [4:0] $end
$scope module e_count $end
$var wire 6 8 old_clk [5:0] $end
$var wire 8 9 old_energy [7:0] $end
$var wire 5 : people_count [4:0] $end
$var wire 8 ; next_energy [7:0] $end
$var wire 6 < next_clk [5:0] $end
$var wire 8 = new_energy [7:0] $end
$var wire 1 > is_energy_up $end
$scope module add_clk $end
$var wire 1 ? _00_ $end
$var wire 1 @ _01_ $end
$var wire 1 A _02_ $end
$var wire 1 B _03_ $end
$var wire 1 C _04_ $end
$var wire 1 D _05_ $end
$var wire 1 E _06_ $end
$var wire 1 F _07_ $end
$var wire 1 G _08_ $end
$var wire 1 H _09_ $end
$var wire 1 I _10_ $end
$var wire 1 J _11_ $end
$var wire 1 K _12_ $end
$var wire 1 L _13_ $end
$var wire 1 M _14_ $end
$var wire 1 N _15_ $end
$var wire 1 O _16_ $end
$var wire 1 P _17_ $end
$var wire 1 Q _18_ $end
$var wire 1 R _19_ $end
$var wire 6 S a [5:0] $end
$var wire 6 T b [5:0] $end
$var wire 1 U cin $end
$var wire 1 > cout $end
$var wire 32 V i [31:0] $end
$var wire 6 W s [5:0] $end
$var wire 6 X c [5:0] $end
$upscope $end
$scope module add_energy $end
$var wire 1 Y _00_ $end
$var wire 1 Z _01_ $end
$var wire 1 [ _02_ $end
$var wire 1 \ _03_ $end
$var wire 1 ] _04_ $end
$var wire 1 ^ _05_ $end
$var wire 1 _ _06_ $end
$var wire 1 ` _07_ $end
$var wire 1 a _08_ $end
$var wire 1 b _09_ $end
$var wire 1 c _10_ $end
$var wire 1 d _11_ $end
$var wire 1 e _12_ $end
$var wire 1 f _13_ $end
$var wire 1 g _14_ $end
$var wire 1 h _15_ $end
$var wire 1 i _16_ $end
$var wire 1 j _17_ $end
$var wire 1 k _18_ $end
$var wire 1 l _19_ $end
$var wire 1 m _20_ $end
$var wire 1 n _21_ $end
$var wire 1 o _22_ $end
$var wire 1 p _23_ $end
$var wire 1 q _24_ $end
$var wire 1 r _25_ $end
$var wire 1 s _26_ $end
$var wire 1 t _27_ $end
$var wire 8 u a [7:0] $end
$var wire 8 v b [7:0] $end
$var wire 1 w cin $end
$var wire 1 x cout $end
$var wire 32 y i [31:0] $end
$var wire 8 z s [7:0] $end
$var wire 8 { c [7:0] $end
$upscope $end
$scope module m1 $end
$var wire 8 | d0 [7:0] $end
$var wire 8 } d1 [7:0] $end
$var wire 1 > s $end
$var wire 8 ~ y [7:0] $end
$upscope $end
$upscope $end
$scope module energy $end
$var wire 1 !" _00_ $end
$var wire 1 "" _01_ $end
$var wire 1 #" _03_ $end
$var wire 1 $" _04_ $end
$var wire 1 %" _06_ $end
$var wire 1 &" _07_ $end
$var wire 1 '" _08_ $end
$var wire 1 (" _10_ $end
$var wire 1 )" _11_ $end
$var wire 1 *" _13_ $end
$var wire 1 +" _14_ $end
$var wire 1 ," _15_ $end
$var wire 1 -" _16_ $end
$var wire 1 ." _17_ $end
$var wire 4 /" data [3:0] $end
$var wire 7 0" segments [6:0] $end
$var wire 1 1" _18_ $end
$var wire 1 2" _12_ $end
$var wire 1 3" _09_ $end
$var wire 1 4" _05_ $end
$var wire 1 5" _02_ $end
$upscope $end
$scope module p_count $end
$var wire 1 6" _00_ $end
$var wire 1 7" _01_ $end
$var wire 1 8" _02_ $end
$var wire 1 9" _03_ $end
$var wire 1 :" _04_ $end
$var wire 1 ;" _05_ $end
$var wire 1 <" _06_ $end
$var wire 1 =" _07_ $end
$var wire 1 >" _08_ $end
$var wire 5 ?" current_count [4:0] $end
$var wire 1 @" dec $end
$var wire 1 A" inc $end
$var wire 1 ( switch_A $end
$var wire 1 ) switch_B $end
$var wire 5 B" sub [4:0] $end
$var wire 5 C" next_count [4:0] $end
$var wire 5 D" mux_1 [4:0] $end
$var wire 5 E" mux_0 [4:0] $end
$var wire 5 F" add [4:0] $end
$scope module adding $end
$var wire 1 G" _00_ $end
$var wire 1 H" _01_ $end
$var wire 1 I" _02_ $end
$var wire 1 J" _03_ $end
$var wire 1 K" _04_ $end
$var wire 1 L" _05_ $end
$var wire 1 M" _06_ $end
$var wire 1 N" _07_ $end
$var wire 1 O" _08_ $end
$var wire 1 P" _09_ $end
$var wire 1 Q" _10_ $end
$var wire 1 R" _11_ $end
$var wire 1 S" _12_ $end
$var wire 1 T" _13_ $end
$var wire 1 U" _14_ $end
$var wire 1 V" _15_ $end
$var wire 5 W" a [4:0] $end
$var wire 5 X" b [4:0] $end
$var wire 1 Y" cin $end
$var wire 1 Z" cout $end
$var wire 32 [" i [31:0] $end
$var wire 5 \" s [4:0] $end
$var wire 5 ]" c [4:0] $end
$upscope $end
$scope module m0 $end
$var wire 5 ^" d0 [4:0] $end
$var wire 5 _" d1 [4:0] $end
$var wire 1 A" s $end
$var wire 5 `" y [4:0] $end
$upscope $end
$scope module m1 $end
$var wire 5 a" d0 [4:0] $end
$var wire 1 6" s $end
$var wire 5 b" y [4:0] $end
$var wire 5 c" d1 [4:0] $end
$upscope $end
$scope module m2 $end
$var wire 5 d" d0 [4:0] $end
$var wire 5 e" d1 [4:0] $end
$var wire 1 @" s $end
$var wire 5 f" y [4:0] $end
$upscope $end
$scope module subtracting $end
$var wire 1 g" _00_ $end
$var wire 1 h" _01_ $end
$var wire 1 i" _02_ $end
$var wire 1 j" _03_ $end
$var wire 1 k" _04_ $end
$var wire 1 l" _05_ $end
$var wire 1 m" _06_ $end
$var wire 1 n" _07_ $end
$var wire 1 o" _08_ $end
$var wire 1 p" _09_ $end
$var wire 1 q" _10_ $end
$var wire 1 r" _11_ $end
$var wire 1 s" _12_ $end
$var wire 1 t" _13_ $end
$var wire 1 u" _14_ $end
$var wire 1 v" _15_ $end
$var wire 5 w" a [4:0] $end
$var wire 5 x" b [4:0] $end
$var wire 1 y" cin $end
$var wire 1 z" cout $end
$var wire 32 {" i [31:0] $end
$var wire 5 |" s [4:0] $end
$var wire 5 }" c [4:0] $end
$upscope $end
$upscope $end
$scope module people $end
$var wire 1 ~" _00_ $end
$var wire 1 !# _01_ $end
$var wire 1 "# _03_ $end
$var wire 1 ## _04_ $end
$var wire 1 $# _06_ $end
$var wire 1 %# _07_ $end
$var wire 1 &# _08_ $end
$var wire 1 '# _10_ $end
$var wire 1 (# _11_ $end
$var wire 1 )# _13_ $end
$var wire 1 *# _14_ $end
$var wire 1 +# _15_ $end
$var wire 1 ,# _16_ $end
$var wire 1 -# _17_ $end
$var wire 4 .# data [3:0] $end
$var wire 7 /# segments [6:0] $end
$var wire 1 0# _18_ $end
$var wire 1 1# _12_ $end
$var wire 1 2# _09_ $end
$var wire 1 3# _05_ $end
$var wire 1 4# _02_ $end
$upscope $end
$upscope $end
$scope task person_in $end
$upscope $end
$scope task person_out $end
$upscope $end
$upscope $end
$enddefinitions $end
$comment Show the parameter values. $end
$dumpall
$end
#0
$dumpvars
04#
13#
12#
11#
10#
b1111110 /#
b0 .#
0-#
1,#
1+#
1*#
1)#
0(#
1'#
1&#
0%#
1$#
1##
1"#
1!#
1~"
b0zzz1 }"
b11111 |"
b101 {"
0z"
1y"
b11110 x"
b0 w"
1v"
0u"
1t"
0s"
1r"
0q"
0p"
1o"
0n"
1m"
1l"
1k"
0j"
1i"
1h"
1g"
b0 f"
b11111 e"
b0 d"
b11111 c"
b11111 b"
b0 a"
b0 `"
b1 _"
b0 ^"
b0zzz0 ]"
b1 \"
b101 ["
0Z"
0Y"
b1 X"
b0 W"
0V"
0U"
1T"
0S"
1R"
1Q"
0P"
1O"
0N"
1M"
0L"
1K"
0J"
1I"
0H"
0G"
b1 F"
b0 E"
b11111 D"
b0 C"
b11111 B"
0A"
0@"
b0 ?"
1>"
1="
0<"
0;"
0:"
19"
08"
07"
16"
05"
14"
13"
12"
11"
b1111110 0"
b0 /"
0."
1-"
1,"
1+"
1*"
0)"
1("
1'"
0&"
1%"
1$"
1#"
1""
1!"
b0 ~
b1 }
b0 |
b0zzzzzz0 {
b1 z
b1000 y
0x
0w
b0 v
b1 u
0t
0s
1r
0q
1p
1o
0n
1m
0l
1k
1j
1i
0h
1g
1f
1e
0d
1c
1b
1a
0`
1_
0^
1]
0\
1[
0Z
0Y
b0zzzz0 X
b0 W
b110 V
0U
b0 T
b0 S
0R
0Q
1P
0O
1N
1M
0L
1K
0J
1I
1H
1G
0F
1E
0D
1C
0B
1A
0@
1?
0>
b1 =
b0 <
b0 ;
b0 :
b0 9
b0 8
b0 7
b0 6
b0 5
b0 4
b0 3
b0 2
b0 1
b0 0
b1111110 /
b1111110 .
0-
1,
0+
0*
0)
0(
1'
0&
b0 %
b0 $
0#
b1111110 "
b1111110 !
$end
#5000
1&
#10000
0&
#15000
b1 1
b1 C"
b1 f"
b0 D"
b0 b"
b0 e"
b1 E"
b1 `"
b1 d"
06"
1A"
1(
0'
1&
#20000
0&
#25000
b1zzz1 }"
1z"
1u"
0t"
1s"
0o"
1n"
0k"
02#
b110000 !
b110000 .
b110000 /#
0$#
0&#
03#
01#
00#
b1 4
b1 <
b1 W
b10 F"
b10 \"
b10 _"
b0 B"
b0 c"
b0 |"
1j"
0##
0'#
0+#
0K"
1(#
1-#
0?
0>"
1G"
0I"
0g"
b1 .#
b1 T
b1 7
b1 :
b1 ?"
b1 W"
b1 ^"
b1 a"
b1 w"
b1 1
b1 C"
b1 f"
b0 D"
b0 b"
b0 e"
b1 E"
b1 `"
b1 d"
16"
0A"
0(
1&
#30000
0&
#35000
b10 4
b10 <
b10 W
0C
1?
0A
b1 5
b1 8
b1 S
b10 1
b10 C"
b10 f"
b1 D"
b1 b"
b1 e"
b10 E"
b10 `"
b10 d"
06"
1A"
1(
1&
#40000
0&
#45000
1k"
b100 4
b100 <
b100 W
1O"
12#
0j"
0G
b11 F"
b11 \"
b11 _"
b1 B"
b1 c"
b1 |"
b1101101 !
b1101101 .
b1101101 /#
0"#
1&#
11#
10#
0*#
1C
1K"
0E
0="
0N"
0n"
0m"
14#
1%#
1'#
0)#
1A
0>"
0G"
1I"
1g"
1H"
0h"
b1 %
b1 2
b1 $
b1 0
b10 .#
b10 5
b10 8
b10 S
b10 T
b10 7
b10 :
b10 ?"
b10 W"
b10 ^"
b10 a"
b10 w"
b10 1
b10 C"
b10 f"
b1 D"
b1 b"
b1 e"
b10 E"
b10 `"
b10 d"
16"
0A"
0(
1&
#50000
0&
#55000
1K
1G
b110 4
b110 <
b110 W
1E
0J
1@
1D
b100 5
b100 8
b100 S
b11 1
b11 C"
b11 f"
b10 D"
b10 b"
b10 e"
b11 E"
b11 `"
b11 d"
06"
1A"
1(
1&
#60000
0&
#65000
0K
0O"
0k"
1J
02#
1N"
0&#
b1111001 !
b1111001 .
b1111001 /#
b100 F"
b100 \"
b100 _"
b10 B"
b10 c"
b10 |"
1j"
b1001 4
b1001 <
b1001 W
0G
0!#
0%#
1*#
1+#
0K"
0E
0(#
1)#
0?
1G"
0I"
0g"
0@
b11 .#
b110 5
b110 8
b110 S
b11 T
b11 7
b11 :
b11 ?"
b11 W"
b11 ^"
b11 a"
b11 w"
b11 1
b11 C"
b11 f"
b10 D"
b10 b"
b10 e"
b11 E"
b11 `"
b11 d"
16"
0A"
0(
1&
#70000
0&
#75000
1P
1F
1K
0O
0C
0G
b1100 4
b1100 <
b1100 W
1?
0A
1E
0J
0H
1@
0D
b1001 5
b1001 8
b1001 S
b100 1
b100 C"
b100 f"
b11 D"
b11 b"
b11 e"
b100 E"
b100 `"
b100 d"
06"
1A"
1(
1&
#80000
0&
#85000
0P
1k"
1O
1T"
1G
1O"
13#
1&#
0j"
0K
b10000 4
b10000 <
b10000 W
0>"
b101 F"
b101 \"
b101 _"
b11 B"
b11 c"
b11 |"
1o"
1!#
1##
b110011 !
b110011 .
b110011 /#
00#
1C
1K"
0I
0S"
0s"
0r"
0F
0="
0N"
0n"
1m"
0~"
14#
01#
0-#
1A
0G"
1I"
1g"
1<"
1L"
0l"
0@
0H"
1h"
b10 %
b10 2
b10 $
b10 0
b100 .#
b1100 5
b1100 8
b1100 S
b100 T
b100 7
b100 :
b100 ?"
b100 W"
b100 ^"
b100 a"
b100 w"
b100 1
b100 C"
b100 f"
b11 D"
b11 b"
b11 e"
b100 E"
b100 `"
b100 d"
16"
0A"
0(
1&
#90000
0&
#95000
1P
b0zzzz0 X
b0 3
b0 ;
b0 ~
0>
0O
0Q
1K
b10100 4
b10100 <
b10100 W
1I
1H
0M
1D
b10000 5
b10000 8
b10000 S
b101 1
b101 C"
b101 f"
b100 D"
b100 b"
b100 e"
b101 E"
b101 `"
b101 d"
06"
1A"
1(
1&
#100000
0&
#105000
0o"
1n"
0k"
0&#
0,#
b1011011 !
b1011011 .
b1011011 /#
b110 F"
b110 \"
b110 _"
b100 B"
b100 c"
b100 |"
1j"
b11001 4
b11001 <
b11001 W
0K
0##
0'#
11#
0+#
10#
0K"
0I
1(#
1-#
0?
1G"
0I"
0g"
0D
b101 .#
b10100 5
b10100 8
b10100 S
b101 T
b101 7
b101 :
b101 ?"
b101 W"
b101 ^"
b101 a"
b101 w"
b101 1
b101 C"
b101 f"
b100 D"
b100 b"
b100 e"
b101 E"
b101 `"
b101 d"
16"
0A"
0(
1&
#110000
0&
#115000
b0zzzz0 X
b0 3
b0 ;
b0 ~
0>
0Q
1P
0O
0C
1K
b11110 4
b11110 <
b11110 W
1?
0A
1I
0H
1D
b11001 5
b11001 8
b11001 S
b100 1
b100 C"
b100 f"
1@"
1)
1&
#120000
0&
#125000
b1zzzz0 X
b1 3
b1 ;
b1 ~
1>
1o"
1Q
0n"
0P
b11 D"
b11 b"
b11 e"
1k"
1O
1G
1&#
1,#
b110011 !
b110011 .
b110011 /#
b101 F"
b101 \"
b101 _"
b11 B"
b11 c"
b11 |"
0j"
0K
b100010 4
b100010 <
b100010 W
1##
1'#
01#
1+#
00#
1C
1K"
0I
0F
0(#
0-#
1A
0G"
1I"
1g"
0D
1@
b100 E"
b100 `"
b100 d"
b100 .#
b11110 5
b11110 8
b11110 S
b100 T
b100 7
b100 :
b100 ?"
b100 W"
b100 ^"
b100 a"
b100 w"
b100 1
b100 C"
b100 f"
0@"
0)
1&
#130000
0&
#135000
1P
b0zzzz0 X
0>
03"
b110000 "
b110000 /
b110000 0"
0O
0Q
0%"
0'"
04"
02"
01"
b10 =
b10 z
b10 }
1K
0$"
0("
0,"
0]
1I
1H
1M
b100110 4
b100110 <
b100110 W
1)"
1."
1Y
0[
1D
1R
b1 /"
b100010 5
b100010 8
b100010 S
b1 6
b1 9
b1 v
b1 |
b11 1
b11 C"
b11 f"
1@"
1)
1&
#140000
0&
#145000
b1zzz1 }"
0K
0O"
1z"
0k"
1u"
1J
b10 D"
b10 b"
b10 e"
1s"
1N"
0&#
03#
1j"
0t"
b101001 4
b101001 <
b101001 W
0G
b100 F"
b100 \"
b100 _"
b10 B"
b10 c"
b10 |"
0o"
0!#
0##
0$#
b1111001 !
b1111001 .
b1111001 /#
0K"
1r"
0E
0m"
1~"
02#
11#
1-#
10#
0?
1G"
0I"
0g"
0<"
0L"
1l"
0@
1H"
0h"
b11 E"
b11 `"
b11 d"
b1 %
b1 2
b1 $
b1 0
b11 .#
b100110 5
b100110 8
b100110 S
b11 T
b11 7
b11 :
b11 ?"
b11 W"
b11 ^"
b11 a"
b11 w"
b11 1
b11 C"
b11 f"
0@"
0)
1&
#150000
0&
#155000
1P
1F
1K
0O
0C
0G
b101100 4
b101100 <
b101100 W
1?
0A
1E
0J
0H
1@
0D
b101001 5
b101001 8
b101001 S
b10 1
b10 C"
b10 f"
1@"
1)
1&
#160000
0&
#165000
1P
1G
1O"
0O
b1 D"
b1 b"
b1 e"
1k"
12#
0F
0N"
1K
1&#
b1101101 !
b1101101 .
b1101101 /#
b11 F"
b11 \"
b11 _"
b1 B"
b1 c"
b1 |"
0j"
b101110 4
b101110 <
b101110 W
1!#
1%#
0*#
0+#
1C
1K"
0J
1(#
0)#
1A
0G"
1I"
1g"
1D
b10 E"
b10 `"
b10 d"
b10 .#
b101100 5
b101100 8
b101100 S
b10 T
b10 7
b10 :
b10 ?"
b10 W"
b10 ^"
b10 a"
b10 w"
b10 1
b10 C"
b10 f"
0@"
0)
1&
#170000
0&
#175000
0P
1O
0K
1J
b110000 4
b110000 <
b110000 W
0G
0E
0@
b101110 5
b101110 8
b101110 S
b1 1
b1 C"
b1 f"
1@"
1)
1&
#180000
0&
#185000
b1zzz1 }"
1z"
1u"
1n"
0t"
b0zzzz0 X
b1 3
b1 ;
b1 ~
1P
0k"
0>
b0 D"
b0 b"
b0 e"
1s"
0Q
0O
1K
02#
1j"
b110001 4
b110001 <
b110001 W
1G
b10 F"
b10 \"
b10 _"
b0 B"
b0 c"
b0 |"
0o"
b110000 !
b110000 .
b110000 /#
1"#
0&#
01#
00#
1*#
0K"
0M
1H
0J
1E
1="
1m"
04#
0%#
0'#
1)#
0?
1G"
0I"
0g"
0D
0H"
1h"
b1 E"
b1 `"
b1 d"
b0 %
b0 2
b0 $
b0 0
b1 .#
b110000 5
b110000 8
b110000 S
b1 T
b1 7
b1 :
b1 ?"
b1 W"
b1 ^"
b1 a"
b1 w"
b1 1
b1 C"
b1 f"
0@"
0)
1&
#190000
0&
#195000
b110010 4
b110010 <
b110010 W
0C
1?
0A
b110001 5
b110001 8
b110001 S
b0 1
b0 C"
b0 f"
1@"
1)
1&
#200000
0&
#205000
b0zzz1 }"
0z"
0u"
1t"
0s"
1o"
0n"
b11111 D"
b11111 b"
b11111 e"
1k"
12#
b1111110 !
b1111110 .
b1111110 /#
1G
1$#
1&#
13#
11#
10#
b1 F"
b1 \"
b1 _"
b11111 B"
b11111 c"
b11111 |"
0j"
b110010 4
b110010 <
b110010 W
1##
1'#
1+#
1C
1K"
0F
0(#
0-#
1A
1>"
0G"
1I"
1g"
1@
b0 E"
b0 `"
b0 d"
b0 .#
b110010 5
b110010 8
b110010 S
b0 T
b0 7
b0 :
b0 ?"
b0 W"
b0 ^"
b0 a"
b0 w"
b0 1
b0 C"
b0 f"
0@"
0)
1&
#210000
0&
#215000
1)
1&
#220000
0&
#225000
0)
1&
#230000
0&
#235000
1)
1&
#240000
0&
#245000
0)
1&
#250000
0&
#255000
1)
1&
#260000
0&
#265000
0)
1&
#270000
0&
#275000
b1 1
b1 C"
b1 f"
b0 D"
b0 b"
b0 e"
b1 E"
b1 `"
b1 d"
06"
1A"
1(
1&
#280000
0&
#285000
b1zzz1 }"
1z"
1u"
0t"
1s"
0o"
1n"
0k"
02#
b110000 !
b110000 .
b110000 /#
0$#
0&#
03#
01#
00#
b110011 4
b110011 <
b110011 W
b10 F"
b10 \"
b10 _"
b0 B"
b0 c"
b0 |"
1j"
0##
0'#
0+#
0K"
1(#
1-#
0?
0>"
1G"
0I"
0g"
b1 .#
b1 T
b1 7
b1 :
b1 ?"
b1 W"
b1 ^"
b1 a"
b1 w"
b1 1
b1 C"
b1 f"
b0 D"
b0 b"
b0 e"
b1 E"
b1 `"
b1 d"
16"
0A"
0(
1&
#290000
0&
#295000
0G
1F
b110100 4
b110100 <
b110100 W
0C
1?
0A
b110011 5
b110011 8
b110011 S
b10 1
b10 C"
b10 f"
b1 D"
b1 b"
b1 e"
b10 E"
b10 `"
b10 d"
06"
1A"
1(
1&
#300000
0&
#305000
1G
1k"
0F
1K
1O"
12#
0j"
b110110 4
b110110 <
b110110 W
b11 F"
b11 \"
b11 _"
b1 B"
b1 c"
b1 |"
b1101101 !
b1101101 .
b1101101 /#
0"#
1&#
11#
10#
0*#
1C
1K"
0J
0="
0N"
0n"
0m"
14#
1%#
1'#
0)#
1A
0>"
0G"
1I"
1g"
1D
1H"
0h"
b1 %
b1 2
b1 $
b1 0
b10 .#
b110100 5
b110100 8
b110100 S
b10 T
b10 7
b10 :
b10 ?"
b10 W"
b10 ^"
b10 a"
b10 w"
b10 1
b10 C"
b10 f"
b1 D"
b1 b"
b1 e"
b10 E"
b10 `"
b10 d"
16"
0A"
0(
1&
#310000
0&
#315000
0K
1J
b111000 4
b111000 <
b111000 W
0G
0E
0@
b110110 5
b110110 8
b110110 S
b11 1
b11 C"
b11 f"
b10 D"
b10 b"
b10 e"
b11 E"
b11 `"
b11 d"
06"
1A"
1(
1&
#320000
0&
#325000
b0zzzz0 X
b1 3
b1 ;
b1 ~
0>
0Q
0O"
1P
0k"
02#
1N"
0O
1K
0&#
b1111001 !
b1111001 .
b1111001 /#
b100 F"
b100 \"
b100 _"
b10 B"
b10 c"
b10 |"
1j"
b111011 4
b111011 <
b111011 W
1G
0!#
0%#
1*#
1+#
0K"
0H
0J
1E
0(#
1)#
0?
1G"
0I"
0g"
0D
1@
b11 .#
b111000 5
b111000 8
b111000 S
b11 T
b11 7
b11 :
b11 ?"
b11 W"
b11 ^"
b11 a"
b11 w"
b11 1
b11 C"
b11 f"
b10 D"
b10 b"
b10 e"
b11 E"
b11 `"
b11 d"
16"
0A"
0(
1&
#330000
0&
#335000
0C
b111110 4
b111110 <
b111110 W
0G
1?
0A
0E
0@
b111011 5
b111011 8
b111011 S
b100 1
b100 C"
b100 f"
b11 D"
b11 b"
b11 e"
b100 E"
b100 `"
b100 d"
06"
1A"
1(
1&
#340000
0&
#345000
b1zzzz0 X
b10 3
b10 ;
b10 ~
1>
1Q
0P
1k"
1O
1T"
1O"
13#
1&#
0j"
0K
b10 4
b10 <
b10 W
1G
0>"
b101 F"
b101 \"
b101 _"
b11 B"
b11 c"
b11 |"
1o"
1!#
1##
b110011 !
b110011 .
b110011 /#
00#
1C
1K"
0I
0S"
0s"
0r"
0F
1E
0="
0N"
0n"
1m"
0~"
14#
01#
0-#
1A
0G"
1I"
1g"
1<"
1L"
0l"
1@
0H"
1h"
b10 %
b10 2
b10 $
b10 0
b100 .#
b111110 5
b111110 8
b111110 S
b100 T
b100 7
b100 :
b100 ?"
b100 W"
b100 ^"
b100 a"
b100 w"
b100 1
b100 C"
b100 f"
b11 D"
b11 b"
b11 e"
b100 E"
b100 `"
b100 d"
16"
0A"
0(
1&
#350000
0&
#355000
1P
b0zzzz0 X
0>
b10 3
b10 ;
b10 ~
0O
0Q
13"
1a
1K
1]
b1101101 "
b1101101 /
b1101101 0"
0#"
1'"
12"
11"
0+"
b11 =
b11 z
b11 }
1I
1H
1M
b110 4
b110 <
b110 W
0Y
1[
15"
1&"
1("
0*"
0`
1D
0R
1Z
b10 /"
b10 5
b10 8
b10 S
b10 6
b10 9
b10 v
b10 |
b101 1
b101 C"
b101 f"
b100 D"
b100 b"
b100 e"
b101 E"
b101 `"
b101 d"
06"
1A"
1(
1&
#360000
0&
#365000
0o"
1n"
0k"
0&#
0,#
b1011011 !
b1011011 .
b1011011 /#
b110 F"
b110 \"
b110 _"
b100 B"
b100 c"
b100 |"
1j"
b1011 4
b1011 <
b1011 W
0K
0##
0'#
11#
0+#
10#
0K"
0I
1(#
1-#
0?
1G"
0I"
0g"
0D
b101 .#
b110 5
b110 8
b110 S
b101 T
b101 7
b101 :
b101 ?"
b101 W"
b101 ^"
b101 a"
b101 w"
b101 1
b101 C"
b101 f"
b100 D"
b100 b"
b100 e"
b101 E"
b101 `"
b101 d"
16"
0A"
0(
1&
#370000
0&
#375000
1J
0G
0P
1F
1O
0C
0K
b10000 4
b10000 <
b10000 W
1?
0A
1I
0H
1D
b1011 5
b1011 8
b1011 S
b110 1
b110 C"
b110 f"
b101 D"
b101 b"
b101 e"
b110 E"
b110 `"
b110 d"
06"
1A"
1(
1&
#380000
0&
#385000
1K
0J
1T"
1G
b0zzzz0 X
b10 3
b10 ;
b10 ~
1P
0S"
1k"
0>
0F
0Q
0O
1O"
b1011111 !
b1011111 .
b1011111 /#
0j"
b10110 4
b10110 <
b10110 W
b111 F"
b111 \"
b111 _"
b101 B"
b101 c"
b101 |"
1&#
12#
1C
1K"
0M
1H
0N"
0n"
0m"
1%#
1'#
0)#
1A
0G"
1I"
1g"
1H"
0h"
b11 %
b11 2
b11 $
b11 0
b110 .#
b10000 5
b10000 8
b10000 S
b110 T
b110 7
b110 :
b110 ?"
b110 W"
b110 ^"
b110 a"
b110 w"
b110 1
b110 C"
b110 f"
b101 D"
b101 b"
b101 e"
b110 E"
b110 `"
b110 d"
16"
0A"
0(
1&
#390000
0&
#395000
0G
b11100 4
b11100 <
b11100 W
0K
0E
0I
0@
0D
b10110 5
b10110 8
b10110 S
b111 1
b111 C"
b111 f"
b110 D"
b110 b"
b110 e"
b111 E"
b111 `"
b111 d"
06"
1A"
1(
1&
#400000
0&
#405000
0T"
b1zzzz0 X
b11 3
b11 ;
b11 ~
1>
1S"
1Q
0O"
0P
0k"
1N"
1O
04#
03#
0&#
02#
b1110000 !
b1110000 .
b1110000 /#
1,#
b1000 F"
b1000 \"
b1000 _"
b110 B"
b110 c"
b110 |"
1j"
b100011 4
b100011 <
b100011 W
1G
0!#
0%#
01#
1+#
0K"
0H
1E
0(#
1)#
0?
1G"
0I"
0g"
1@
b111 .#
b11100 5
b11100 8
b11100 S
b111 T
b111 7
b111 :
b111 ?"
b111 W"
b111 ^"
b111 a"
b111 w"
b111 1
b111 C"
b111 f"
b110 D"
b110 b"
b110 e"
b111 E"
b111 `"
b111 d"
16"
0A"
0(
1&
#410000
0&
#415000
0a
1P
b0zzzz0 X
1J
0>
03"
1`
0O
0Q
0'"
b1111001 "
b1111001 /
b1111001 0"
b100 =
b100 z
b100 }
0C
0G
0K
0""
0&"
1+"
1,"
0]
1?
0A
0E
1I
1H
1M
b101010 4
b101010 <
b101010 W
0)"
1*"
1Y
0[
0@
1D
1R
b11 /"
b100011 5
b100011 8
b100011 S
b11 6
b11 9
b11 v
b11 |
b1000 1
b1000 C"
b1000 f"
b111 D"
b111 b"
b111 e"
b1000 E"
b1000 `"
b1000 d"
06"
1A"
1(
1&
#420000
0&
#425000
b0zzz0 ]"
1k"
0Z"
12#
0U"
0u"
1K
0>"
1T"
1O"
1$#
1&#
13#
0j"
0P
0="
1t"
b110010 4
b110010 <
b110010 W
1G
b1001 F"
b1001 \"
b1001 _"
b111 B"
b111 c"
b111 |"
1o"
1!#
1"#
1##
1C
1K"
0N
0Q"
1q"
0J
0S"
0s"
1r"
0F
1E
0N"
0n"
1m"
1~"
11#
0-#
b1111111 !
b1111111 .
b1111111 /#
1A
0G"
1I"
1g"
1;"
1p"
0D
1<"
0L"
1l"
1@
0H"
1h"
b100 %
b100 2
b100 $
b100 0
b1000 .#
b101010 5
b101010 8
b101010 S
b1000 T
b1000 7
b1000 :
b1000 ?"
b1000 W"
b1000 ^"
b1000 a"
b1000 w"
b1000 1
b1000 C"
b1000 f"
b111 D"
b111 b"
b111 e"
b1000 E"
b1000 `"
b1000 d"
16"
0A"
0(
1&
#430000
0&
#435000
b0zzzz0 X
b11 3
b11 ;
b11 ~
0>
0Q
1P
b111010 4
b111010 <
b111010 W
0H
1N
0M
b110010 5
b110010 8
b110010 S
b1001 1
b1001 C"
b1001 f"
b1000 D"
b1000 b"
b1000 e"
b1001 E"
b1001 `"
b1001 d"
06"
1A"
1(
1&
#440000
0&
#445000
0t"
1s"
0o"
1n"
b1zzzz0 X
b100 3
b100 ;
b100 ~
1>
0k"
1Q
b1111011 !
b1111011 .
b1111011 /#
02#
0$#
0&#
03#
01#
00#
b1010 F"
b1010 \"
b1010 _"
b1000 B"
b1000 c"
b1000 |"
1j"
b11 4
b11 <
b11 W
0P
0##
0'#
0+#
0K"
1H
0N
1(#
1-#
0?
1G"
0I"
0g"
b1001 .#
b111010 5
b111010 8
b111010 S
b1001 T
b1001 7
b1001 :
b1001 ?"
b1001 W"
b1001 ^"
b1001 a"
b1001 w"
b1001 1
b1001 C"
b1001 f"
b1000 D"
b1000 b"
b1000 e"
b1001 E"
b1001 `"
b1001 d"
16"
0A"
0(
1&
#450000
0&
#455000
0G
b0zzzz0 X
1F
0>
b100 3
b100 ;
b100 ~
0Q
1a
14"
1'"
1e
0C
1P
1]
1""
1$"
b110011 "
b110011 /
b110011 0"
01"
b101 =
b101 z
b101 }
1?
0A
0H
1N
1M
b1100 4
b1100 <
b1100 W
0Y
1[
0`
0!"
15"
02"
0."
0d
0R
0Z
1^
b100 /"
b11 5
b11 8
b11 S
b100 6
b100 9
b100 v
b100 |
b1010 1
b1010 C"
b1010 f"
b1001 D"
b1001 b"
b1001 e"
b1010 E"
b1010 `"
b1010 d"
06"
1A"
1(
1&
#460000
0&
